{
    "token": "<bot token>",
    "chats": [
	{
	    "chatname": "TrueOSCommunity",
	    "message": "Welcome $USER ,, Please take a moment to read the pinned message. TrueOS the desktop is dead and there are 2 options.. Project Trident and GhostBSD"
	}
    ]
}
